{
  "type": "service_account",
  "project_id": "divine-clone-416411",
  "private_key_id": "b57297cde68de4914e7bb8e11fd2f3899ef7912a",
  "private_key": "-----BEGIN PRIVATE KEY-----\nMIIEvwIBADANBgkqhkiG9w0BAQEFAASCBKkwggSlAgEAAoIBAQDS3q4TUKDXX8Uc\nwmUWA6GE5xXjGl2Jm6/w7BahF3ePgvYaQIka2mId2NzYJOxF9o4GyKejDc/hn0Te\nzvybHeoPhqKkXtufRLATV6Lvus+HjbkXtp4I0hS6PxgYL2jE0gmv0QKwK9o1PZqM\nXkKU/6YD35X3VhkMplZk8KMWs/F4+Tlf+iPsFmgiGRaRADufWSwRJUvm1WnxGsxX\nVlKw7QGf8NPjnUDLCjWBAQSJnAqDTNStTKQjTxwlzHXmHgHnYEACtVU/yKZ0nVmj\n41Otk1XpjbP3B2s2RgxWszU5RJeRbUmrC2gE3iT5kjhyWLSbTLM+AUAUKI8RsdIx\nhPtaAkIhAgMBAAECggEAALVRBB1XlvWaQ8MW5BSpypicmxVL9mH8nKxsVIjvxL6B\nvVuVYk7UuMkxT7QLC56dAkKTBpINrlIywOVU1aALeNcgzXjIl8+7ICuBj3jTCN9l\n3WGmhPzQp0H+PpmNKmkSsYGcFtOk4VwmPF22L0ovCHEML8cdISzfWioxQAqlb1y0\nX6G71nebcvzXBqOO4OfKvT8mG1NGv3JSuj1REL55kNV/nDZb0fGTCi2F0YaPEzn3\nbbCszuQqR5qBkf39+2Zwbj7iJniemGRl/HIi0b6cnt4nhX33y6/EsxZd+eun23fB\nkDkXJv+piNBJW4/OWbFPtDZICsnynY6R6SruyTM0AQKBgQD09fxqlcuxIak0wAXe\n151hR6RiiLGOLTqyuutCPOkggVX/G35zK/gaLWDs49piLMec016Tb+dagqYK5+Te\nDyZlgLaDobWK8/2Atk7ETtKk1Jg9rKOn2cvBPB2KJRdbfzaG7V3kzErx5hL+fnnc\nDiK/ZLWb/GFyhCdCON68PNclAQKBgQDcX2ZIJjzbO/555mUwxl9QDFwDIO3XJQvx\n/zhD/VhFW5YZTCd84QwFOkIKgf4D4ZfKfqlOaCI3E3sc7ijjbL4MTQFpQ6FZatNz\nWU3kQsap1kZFth9k+wEKSlWhcMVC58dempwRSoaotct+KcIqG0uCJAieoeSWg7sn\ndpP7zDV9IQKBgQCldIj7zRX6HIxXjuPoMqagkG1eCIo1SCN/mXVSFiY4yGM3nnB4\nhlhcBg6TswtMiIaDTNlyqIERx3EzqJIT0xPSN3AP1Of0ZPzzNTBatArfPqFd9v/L\nXfacHGivaIIwUOqZlDZ5VevBG+/0aaURl5Ksx+9K3ttLKCwENLltV4LSAQKBgQCx\neDp8nB6iR5xWOw7+yqJzaqCm/FvNyU3nYyvCxUHTCUDFuqiKTwpJI3OP1sPkCEcf\nkgVy2TXEuPGKiNlw3V/ntBQQ26ASzI7g8+hgjM5EdAU/mr2JqwJZcSeozZJuoQ3T\nyBsraaMsNstcHPD6y+RxN+ehKKtX81pDG6FtRDVHQQKBgQDGH50CEG8GUrp0kIys\nYy+IX6qAcJGSO11v+yWiAqdjV3l1M0BULFMq44l1tD2ZTfgiAq0714f+CPgD93OU\nVpJ3IN4hwCFT4LMtRO0BdBRPRBPN9fYZZppSyBo+F34nb+ZNkEOfP+eCC3QJ5oNG\nR4gKaoA5JS4buQvvOl64euR1TQ==\n-----END PRIVATE KEY-----\n",
  "client_email": "gitlabgke@divine-clone-416411.iam.gserviceaccount.com",
  "client_id": "111725794276127734371",
  "auth_uri": "https://accounts.google.com/o/oauth2/auth",
  "token_uri": "https://oauth2.googleapis.com/token",
  "auth_provider_x509_cert_url": "https://www.googleapis.com/oauth2/v1/certs",
  "client_x509_cert_url": "https://www.googleapis.com/robot/v1/metadata/x509/gitlabgke%40divine-clone-416411.iam.gserviceaccount.com",
  "universe_domain": "googleapis.com"
}
